Surviving Data Analysis
…
---

count: false

.panel1-tidyverse-example-auto[

```r
*vd
```
]
 
.panel2-tidyverse-example-auto[

```
# A tibble: 61,898 x 8
   datum      vakcina  kraj_nuts_kod kraj_nazev     vekova_skupina prvnich_davek
   <date>     <chr>    <chr>         <chr>          <chr>                  <dbl>
 1 2020-12-27 Comirna… CZ010         Hlavní město … 18-24                     49
 2 2020-12-27 Comirna… CZ010         Hlavní město … 25-29                    110
 3 2020-12-27 Comirna… CZ010         Hlavní město … 30-34                    102
 4 2020-12-27 Comirna… CZ010         Hlavní město … 35-39                    111
 5 2020-12-27 Comirna… CZ010         Hlavní město … 40-44                    169
 6 2020-12-27 Comirna… CZ010         Hlavní město … 45-49                    156
 7 2020-12-27 Comirna… CZ010         Hlavní město … 50-54                    128
 8 2020-12-27 Comirna… CZ010         Hlavní město … 55-59                     96
 9 2020-12-27 Comirna… CZ010         Hlavní město … 60-64                     85
10 2020-12-27 Comirna… CZ010         Hlavní město … 65-69                     79
11 2020-12-27 Comirna… CZ010         Hlavní město … 70-74                     48
12 2020-12-27 Comirna… CZ010         Hlavní město … 75-79                     19
13 2020-12-27 Comirna… CZ010         Hlavní město … 80+                       24
14 2020-12-27 Comirna… CZ064         Jihomoravský … 25-29                      3
15 2020-12-27 Comirna… CZ064         Jihomoravský … 30-34                      7
16 2020-12-27 Comirna… CZ064         Jihomoravský … 35-39                      8
17 2020-12-27 Comirna… CZ064         Jihomoravský … 40-44                      6
18 2020-12-27 Comirna… CZ064         Jihomoravský … 45-49                     10
19 2020-12-27 Comirna… CZ064         Jihomoravský … 50-54                     14
20 2020-12-27 Comirna… CZ064         Jihomoravský … 55-59                     11
# … with 61,878 more rows, and 2 more variables: druhych_davek <dbl>,
#   celkem_davek <dbl>
```
…
.panel1-tidyverse-example-auto[

```r
vd %>%
* select(datum, vakcina,
*        nuts3 = kraj_nuts_kod,
*        doses = celkem_davek)   # BREAK
```
]
 
.panel2-tidyverse-example-auto[

```
# A tibble: 61,898 x 4
   datum      vakcina   nuts3 doses
   <date>     <chr>     <chr> <dbl>
 1 2020-12-27 Comirnaty CZ010    49
 2 2020-12-27 Comirnaty CZ010   110
 3 2020-12-27 Comirnaty CZ010   102
 4 2020-12-27 Comirnaty CZ010   111
 5 2020-12-27 Comirnaty CZ010   169
 6 2020-12-27 Comirnaty CZ010   156
 7 2020-12-27 Comirnaty CZ010   128
 8 2020-12-27 Comirnaty CZ010    96
 9 2020-12-27 Comirnaty CZ010    85
10 2020-12-27 Comirnaty CZ010    79
11 2020-12-27 Comirnaty CZ010    48
12 2020-12-27 Comirnaty CZ010    19
13 2020-12-27 Comirnaty CZ010    24
14 2020-12-27 Comirnaty CZ064     3
15 2020-12-27 Comirnaty CZ064     7
16 2020-12-27 Comirnaty CZ064     8
17 2020-12-27 Comirnaty CZ064     6
18 2020-12-27 Comirnaty CZ064    10
19 2020-12-27 Comirnaty CZ064    14
20 2020-12-27 Comirnaty CZ064    11
# … with 61,878 more rows
```
…
.panel1-tidyverse-example-auto[

```r
vd %>%
  select(datum, vakcina,
         nuts3 = kraj_nuts_kod,
         doses = celkem_davek) %>%  # BREAK
* mutate(month = lubridate::floor_date(datum, "month"))   # BREAK
```
]
 
.panel2-tidyverse-example-auto[

```
# A tibble: 61,898 x 5
   datum      vakcina   nuts3 doses month     
   <date>     <chr>     <chr> <dbl> <date>    
 1 2020-12-27 Comirnaty CZ010    49 2020-12-01
 2 2020-12-27 Comirnaty CZ010   110 2020-12-01
 3 2020-12-27 Comirnaty CZ010   102 2020-12-01
 4 2020-12-27 Comirnaty CZ010   111 2020-12-01
 5 2020-12-27 Comirnaty CZ010   169 2020-12-01
 6 2020-12-27 Comirnaty CZ010   156 2020-12-01
 7 2020-12-27 Comirnaty CZ010   128 2020-12-01
 8 2020-12-27 Comirnaty CZ010    96 2020-12-01
 9 2020-12-27 Comirnaty CZ010    85 2020-12-01
10 2020-12-27 Comirnaty CZ010    79 2020-12-01
11 2020-12-27 Comirnaty CZ010    48 2020-12-01
12 2020-12-27 Comirnaty CZ010    19 2020-12-01
13 2020-12-27 Comirnaty CZ010    24 2020-12-01
14 2020-12-27 Comirnaty CZ064     3 2020-12-01
15 2020-12-27 Comirnaty CZ064     7 2020-12-01
16 2020-12-27 Comirnaty CZ064     8 2020-12-01
17 2020-12-27 Comirnaty CZ064     6 2020-12-01
18 2020-12-27 Comirnaty CZ064    10 2020-12-01
19 2020-12-27 Comirnaty CZ064    14 2020-12-01
20 2020-12-27 Comirnaty CZ064    11 2020-12-01
# … with 61,878 more rows
```
…
```r
vd %>%
  select(datum, vakcina,
         nuts3 = kraj_nuts_kod,
         doses = celkem_davek) %>%  # BREAK
  mutate(month = lubridate::floor_date(datum, "month")) %>%  # BREAK
* group_by(month, vakcina, nuts3)   # BREAK
```
]
 
.panel2-tidyverse-example-auto[

```
# A tibble: 61,898 x 5
# Groups:   month, vakcina, nuts3 [280]
   datum      vakcina   nuts3 doses month     
   <date>     <chr>     <chr> <dbl> <date>    
 1 2020-12-27 Comirnaty CZ010    49 2020-12-01
 2 2020-12-27 Comirnaty CZ010   110 2020-12-01
 3 2020-12-27 Comirnaty CZ010   102 2020-12-01
 4 2020-12-27 Comirnaty CZ010   111 2020-12-01
 5 2020-12-27 Comirnaty CZ010   169 2020-12-01
 6 2020-12-27 Comirnaty CZ010   156 2020-12-01
 7 2020-12-27 Comirnaty CZ010   128 2020-12-01
 8 2020-12-27 Comirnaty CZ010    96 2020-12-01
 9 2020-12-27 Comirnaty CZ010    85 2020-12-01
10 2020-12-27 Comirnaty CZ010    79 2020-12-01
11 2020-12-27 Comirnaty CZ010    48 2020-12-01
12 2020-12-27 Comirnaty CZ010    19 2020-12-01
13 2020-12-27 Comirnaty CZ010    24 2020-12-01
14 2020-12-27 Comirnaty CZ064     3 2020-12-01
15 2020-12-27 Comirnaty CZ064     7 2020-12-01
16 2020-12-27 Comirnaty CZ064     8 2020-12-01
17 2020-12-27 Comirnaty CZ064     6 2020-12-01
18 2020-12-27 Comirnaty CZ064    10 2020-12-01
19 2020-12-27 Comirnaty CZ064    14 2020-12-01
20 2020-12-27 Comirnaty CZ064    11 2020-12-01
# … with 61,878 more rows
```
…
```r
vd %>%
  select(datum, vakcina,
         nuts3 = kraj_nuts_kod,
         doses = celkem_davek) %>%  # BREAK
  mutate(month = lubridate::floor_date(datum, "month")) %>%  # BREAK
  group_by(month, vakcina, nuts3) %>%  # BREAK
* summarise(doses = sum(doses))   # BREAK
```
]
 
.panel2-tidyverse-example-auto[

```
# A tibble: 280 x 4
# Groups:   month, vakcina [21]
   month      vakcina   nuts3 doses
   <date>     <chr>     <chr> <dbl>
 1 2020-12-01 Comirnaty CZ010  5522
 2 2020-12-01 Comirnaty CZ020    19
 3 2020-12-01 Comirnaty CZ032    15
 4 2020-12-01 Comirnaty CZ041     1
 5 2020-12-01 Comirnaty CZ042   147
 6 2020-12-01 Comirnaty CZ053    11
 7 2020-12-01 Comirnaty CZ063     1
 8 2020-12-01 Comirnaty CZ064  5026
 9 2020-12-01 Comirnaty CZ071   211
10 2020-12-01 Comirnaty CZ080   816
11 2021-01-01 Comirnaty CZ010 67937
12 2021-01-01 Comirnaty CZ020 21110
13 2021-01-01 Comirnaty CZ031 18702
14 2021-01-01 Comirnaty CZ032 13483
15 2021-01-01 Comirnaty CZ041  5431
16 2021-01-01 Comirnaty CZ042 11138
17 2021-01-01 Comirnaty CZ051  7964
18 2021-01-01 Comirnaty CZ052 14203
19 2021-01-01 Comirnaty CZ053  8470
20 2021-01-01 Comirnaty CZ063  9903
# … with 260 more rows
```
…
.panel2-tidyverse-example-auto[

```
# A tibble: 280 x 4
   month      vakcina   nuts3 doses
   <date>     <chr>     <chr> <dbl>
 1 2020-12-01 Comirnaty CZ010  5522
 2 2020-12-01 Comirnaty CZ020    19
 3 2020-12-01 Comirnaty CZ032    15
 4 2020-12-01 Comirnaty CZ041     1
 5 2020-12-01 Comirnaty CZ042   147
 6 2020-12-01 Comirnaty CZ053    11
 7 2020-12-01 Comirnaty CZ063     1
 8 2020-12-01 Comirnaty CZ064  5026
 9 2020-12-01 Comirnaty CZ071   211
10 2020-12-01 Comirnaty CZ080   816
11 2021-01-01 Comirnaty CZ010 67937
12 2021-01-01 Comirnaty CZ020 21110
13 2021-01-01 Comirnaty CZ031 18702
14 2021-01-01 Comirnaty CZ032 13483
15 2021-01-01 Comirnaty CZ041  5431
16 2021-01-01 Comirnaty CZ042 11138
17 2021-01-01 Comirnaty CZ051  7964
18 2021-01-01 Comirnaty CZ052 14203
19 2021-01-01 Comirnaty CZ053  8470
20 2021-01-01 Comirnaty CZ063  9903
# … with 260 more rows
```
…
.panel2-tidyverse-example-auto[

```
# A tibble: 280 x 4
# Groups:   vakcina, nuts3 [56]
   month      vakcina   nuts3 doses
   <date>     <chr>     <chr> <dbl>
 1 2020-12-01 Comirnaty CZ010  5522
 2 2020-12-01 Comirnaty CZ020    19
 3 2020-12-01 Comirnaty CZ032    15
 4 2020-12-01 Comirnaty CZ041     1
 5 2020-12-01 Comirnaty CZ042   147
 6 2020-12-01 Comirnaty CZ053    11
 7 2020-12-01 Comirnaty CZ063     1
 8 2020-12-01 Comirnaty CZ064  5026
 9 2020-12-01 Comirnaty CZ071   211
10 2020-12-01 Comirnaty CZ080   816
11 2021-01-01 Comirnaty CZ010 67937
12 2021-01-01 Comirnaty CZ020 21110
13 2021-01-01 Comirnaty CZ031 18702
14 2021-01-01 Comirnaty CZ032 13483
15 2021-01-01 Comirnaty CZ041  5431
16 2021-01-01 Comirnaty CZ042 11138
17 2021-01-01 Comirnaty CZ051  7964
18 2021-01-01 Comirnaty CZ052 14203
19 2021-01-01 Comirnaty CZ053  8470
20 2021-01-01 Comirnaty CZ063  9903
# … with 260 more rows
```
…
.panel2-tidyverse-example-auto[

```
# A tibble: 280 x 5
# Groups:   vakcina, nuts3 [56]
   month      vakcina   nuts3 doses cum_doses
   <date>     <chr>     <chr> <dbl>     <dbl>
 1 2020-12-01 Comirnaty CZ010  5522      5522
 2 2020-12-01 Comirnaty CZ020    19        19
 3 2020-12-01 Comirnaty CZ032    15        15
 4 2020-12-01 Comirnaty CZ041     1         1
 5 2020-12-01 Comirnaty CZ042   147       147
 6 2020-12-01 Comirnaty CZ053    11        11
 7 2020-12-01 Comirnaty CZ063     1         1
 8 2020-12-01 Comirnaty CZ064  5026      5026
 9 2020-12-01 Comirnaty CZ071   211       211
10 2020-12-01 Comirnaty CZ080   816       816
11 2021-01-01 Comirnaty CZ010 67937     73459
12 2021-01-01 Comirnaty CZ020 21110     21129
13 2021-01-01 Comirnaty CZ031 18702     18702
14 2021-01-01 Comirnaty CZ032 13483     13498
15 2021-01-01 Comirnaty CZ041  5431      5432
16 2021-01-01 Comirnaty CZ042 11138     11285
17 2021-01-01 Comirnaty CZ051  7964      7964
18 2021-01-01 Comirnaty CZ052 14203     14203
19 2021-01-01 Comirnaty CZ053  8470      8481
20 2021-01-01 Comirnaty CZ063  9903      9904
# … with 260 more rows
```
…
.panel2-tidyverse-example-auto[

```
# A tibble: 280 x 5
# Groups:   vakcina, nuts3 [56]
   month      vakcina                  nuts3  doses cum_doses
   <date>     <chr>                    <chr>  <dbl>     <dbl>
 1 2020-12-01 Comirnaty                CZ010   5522      5522
 2 2021-01-01 Comirnaty                CZ010  67937     73459
 3 2021-02-01 Comirnaty                CZ010  75930    149389
 4 2021-03-01 Comirnaty                CZ010 124294    273683
 5 2021-04-01 Comirnaty                CZ010 158353    432036
 6 2021-05-01 Comirnaty                CZ010 299988    732024
 7 2021-06-01 Comirnaty                CZ010  57208    789232
 8 2021-04-01 COVID-19 Vaccine Janssen CZ010    660       660
 9 2021-05-01 COVID-19 Vaccine Janssen CZ010   4256      4916
10 2021-06-01 COVID-19 Vaccine Janssen CZ010   1477      6393
11 2021-01-01 COVID-19 Vaccine Moderna CZ010      1         1
12 2021-02-01 COVID-19 Vaccine Moderna CZ010      2         3
13 2021-03-01 COVID-19 Vaccine Moderna CZ010  17060     17063
14 2021-04-01 COVID-19 Vaccine Moderna CZ010  23557     40620
15 2021-05-01 COVID-19 Vaccine Moderna CZ010  25304     65924
16 2021-06-01 COVID-19 Vaccine Moderna CZ010   5297     71221
17 2021-02-01 VAXZEVRIA                CZ010   1280      1280
18 2021-03-01 VAXZEVRIA                CZ010  20688     21968
19 2021-04-01 VAXZEVRIA                CZ010  16838     38806
20 2021-05-01 VAXZEVRIA                CZ010  18308     57114
# … with 260 more rows
```
…
